…
    ## ── Column specification ────────────────────────────────────────────────────────
    ## Delimiter: ","
    ## chr (9): uid, victim_last, victim_first, victim_race, victim_age, victim_sex...
    ## dbl (3): reported_date, lat, lon

    ## 
    ## ℹ Use `spec()` to retrieve the full column specification for this data.
    ## ℹ Specify the column types or set `show_col_types = FALSE` to quiet this message.

``` r
homicide_df
```

    ## # A tibble: 52,178 × 2
    ##    city_state     resolved_cases
    ##    <chr>          <chr>         
    ##  1 Albuquerque,NM unsolved      
    ##  2 Albuquerque,NM solved        
    ##  3 Albuquerque,NM unsolved      
    ##  4 Albuquerque,NM solved        
    ##  5 Albuquerque,NM unsolved      
    ##  6 Albuquerque,NM unsolved      
    ##  7 Albuquerque,NM solved        
    ##  8 Albuquerque,NM solved        
    ##  9 Albuquerque,NM unsolved      
    ## 10 Albuquerque,NM unsolved      
    ## # … with 52,168 more rows
## summarize within cities to obtain the total number of homicides and the number of unsolved homicides

``` r
number_homicides_df = 
  homicide_df %>% 
  group_by(city_state) %>% 
  summarize(
    cases_total = n(),
    unsolved_cases_total = sum(resolved_cases == "unsolved")
  )

number_homicides_df
```

    ## # A tibble: 50 × 3
    ##    city_state     cases_total unsolved_cases_total
    ##    <chr>                <int>                <int>
    ##  1 Albuquerque,NM         378                  146
    ##  2 Atlanta,GA             973                  373
    ##  3 Baltimore,MD          2827                 1825
    ##  4 Baton Rouge,LA         424                  196
    ##  5 Birmingham,AL          800                  347
    ##  6 Boston,MA              614                  310
    ##  7 Buffalo,NY             521                  319
    ##  8 Charlotte,NC           687                  206
    ##  9 Chicago,IL            5535                 4073
    ## 10 Cincinnati,OH          694                  309
    ## # … with 40 more rows
…
``` r
results_df = 
  number_homicides_df %>% 
  mutate(
    prop_tests = map2(.x = unsolved_cases_total, .y = cases_total, ~prop.test(x = .x, n = .y)),
    tidy_tests = map(.x = prop_tests, ~broom::tidy(.x))
  ) %>% 
  select(-prop_tests) %>% 
  unnest(tidy_tests) %>% 
  select(city_state, estimate, conf.low, conf.high)

results_df
```

    ## # A tibble: 50 × 4
    ##    city_state     estimate conf.low conf.high
    ##    <chr>             <dbl>    <dbl>     <dbl>
    ##  1 Albuquerque,NM    0.386    0.337     0.438
    ##  2 Atlanta,GA        0.383    0.353     0.415
    ##  3 Baltimore,MD      0.646    0.628     0.663
    ##  4 Baton Rouge,LA    0.462    0.414     0.511
    ##  5 Birmingham,AL     0.434    0.399     0.469
    ##  6 Boston,MA         0.505    0.465     0.545
    ##  7 Buffalo,NY        0.612    0.569     0.654
    ##  8 Charlotte,NC      0.300    0.266     0.336
    ##  9 Chicago,IL        0.736    0.724     0.747
    ## 10 Cincinnati,OH     0.445    0.408     0.483
    ## # … with 40 more rows
…
